dotProductFifoFSM/xsim.log
#-----------------------------------------------------------
# xsim v2024.2 (64-bit)
# SW Build 5239630 on Fri Nov 08 22:34:34 MST 2024
# IP Build 5239520 on Sun Nov 10 16:12:51 MST 2024
# SharedData Build 5239561 on Fri Nov 08 14:39:27 MST 2024
# Start of session at: Sat Oct 11 08:58:07 2025
# Process ID         : 190823
# Current directory  : /home/arthur/Documents/FPGA_master_class/project_and_non_project_mode/dotProductFifoFSM
# Command line       : xsim -source {xsim.dir/work.top_level_wrapper_tb/xsim_script.tcl}
# Log file           : /home/arthur/Documents/FPGA_master_class/project_and_non_project_mode/dotProductFifoFSM/xsim.log
# Journal file       : /home/arthur/Documents/FPGA_master_class/project_and_non_project_mode/dotProductFifoFSM/xsim.jou
# Running On         : arthur-nathaniel
# Platform           : Ubuntu
# Operating System   : Ubuntu 24.04.3 LTS
# Processor Detail   : 13th Gen Intel(R) Core(TM) i3-1315U
# CPU Frequency      : 1412.797 MHz
# CPU Physical cores : 6
# CPU Logical cores  : 8
# Host memory        : 8038 MB
# Swap memory        : 4294 MB
# Total Virtual      : 12333 MB
# Available Virtual  : 5886 MB
#-----------------------------------------------------------
start_gui
source xsim.dir/work.top_level_wrapper_tb/xsim_script.tcl
# set_param project.enableReportConfiguration 0
# load_feature core
# current_fileset
WARNING: [Board 49-26] cannot add Board Part xilinx.com:vck190:part0:2.2 available at /tools/Xilinx/Vivado/2024.2/data/xhub/boards/XilinxBoardStore/boards/Xilinx/vck190/production/2.2/board.xml as part xcvc1902-vsva2197-2mp-e-s specified in board_part file is either invalid or not available
WARNING: [Board 49-26] cannot add Board Part xilinx.com:vck190:part0:3.0 available at /tools/Xilinx/Vivado/2024.2/data/xhub/boards/XilinxBoardStore/boards/Xilinx/vck190/production/3.0/board.xml as part xcvc1902-vsva2197-2mp-e-s specified in board_part file is either invalid or not available
WARNING: [Board 49-26] cannot add Board Part xilinx.com:vck190:part0:3.1 available at /tools/Xilinx/Vivado/2024.2/data/xhub/boards/XilinxBoardStore/boards/Xilinx/vck190/production/3.1/board.xml as part xcvc1902-vsva2197-2mp-e-s specified in board_part file is either invalid or not available
WARNING: [Board 49-26] cannot add Board Part xilinx.com:vck190:part0:3.2 available at /tools/Xilinx/Vivado/2024.2/data/xhub/boards/XilinxBoardStore/boards/Xilinx/vck190/production/3.2/board.xml as part xcvc1902-vsva2197-2mp-e-s specified in board_part file is either invalid or not available
WARNING: [Board 49-26] cannot add Board Part xilinx.com:vck190:part0:3.3 available at /tools/Xilinx/Vivado/2024.2/data/xhub/boards/XilinxBoardStore/boards/Xilinx/vck190/production/3.3/board.xml as part xcvc1902-vsva2197-2mp-e-s specified in board_part file is either invalid or not available
WARNING: [Board 49-26] cannot add Board Part xilinx.com:vck190_newl:part0:1.0 available at /tools/Xilinx/Vivado/2024.2/data/xhub/boards/XilinxBoardStore/boards/Xilinx/vck190_newl/production/1.0/board.xml as part xcvc1902-vsva2197-2mp-e-s specified in board_part file is either invalid or not available
WARNING: [Board 49-26] cannot add Board Part xilinx.com:vck190_newl:part0:1.1 available at /tools/Xilinx/Vivado/2024.2/data/xhub/boards/XilinxBoardStore/boards/Xilinx/vck190_newl/production/1.1/board.xml as part xcvc1902-vsva2197-2mp-e-s specified in board_part file is either invalid or not available
WARNING: [Board 49-26] cannot add Board Part xilinx.com:vck190_newl:part0:1.2 available at /tools/Xilinx/Vivado/2024.2/data/xhub/boards/XilinxBoardStore/boards/Xilinx/vck190_newl/production/1.2/board.xml as part xcvc1902-vsva2197-2mp-e-s specified in board_part file is either invalid or not available
WARNING: [Board 49-26] cannot add Board Part xilinx.com:vmk180:part0:2.2 available at /tools/Xilinx/Vivado/2024.2/data/xhub/boards/XilinxBoardStore/boards/Xilinx/vmk180/production/2.2/board.xml as part xcvm1802-vsva2197-2mp-e-s specified in board_part file is either invalid or not available
WARNING: [Board 49-26] cannot add Board Part xilinx.com:vmk180:part0:3.0 available at /tools/Xilinx/Vivado/2024.2/data/xhub/boards/XilinxBoardStore/boards/Xilinx/vmk180/production/3.0/board.xml as part xcvm1802-vsva2197-2mp-e-s specified in board_part file is either invalid or not available
WARNING: [Board 49-26] cannot add Board Part xilinx.com:vmk180:part0:3.1 available at /tools/Xilinx/Vivado/2024.2/data/xhub/boards/XilinxBoardStore/boards/Xilinx/vmk180/production/3.1/board.xml as part xcvm1802-vsva2197-2mp-e-s specified in board_part file is either invalid or not available
WARNING: [Board 49-26] cannot add Board Part xilinx.com:vmk180:part0:3.2 available at /tools/Xilinx/Vivado/2024.2/data/xhub/boards/XilinxBoardStore/boards/Xilinx/vmk180/production/3.2/board.xml as part xcvm1802-vsva2197-2mp-e-s specified in board_part file is either invalid or not available
WARNING: [Board 49-26] cannot add Board Part xilinx.com:vmk180_newl:part0:1.0 available at /tools/Xilinx/Vivado/2024.2/data/xhub/boards/XilinxBoardStore/boards/Xilinx/vmk180_newl/production/1.0/board.xml as part xcvm1802-vsva2197-2mp-e-s specified in board_part file is either invalid or not available
WARNING: [Board 49-26] cannot add Board Part xilinx.com:vmk180_newl:part0:1.1 available at /tools/Xilinx/Vivado/2024.2/data/xhub/boards/XilinxBoardStore/boards/Xilinx/vmk180_newl/production/1.1/board.xml as part xcvm1802-vsva2197-2mp-e-s specified in board_part file is either invalid or not available
WARNING: [Board 49-26] cannot add Board Part xilinx.com:vpk120:part0:1.0 available at /tools/Xilinx/Vivado/2024.2/data/xhub/boards/XilinxBoardStore/boards/Xilinx/vpk120/production/1.0/board.xml as part xcvp1202-vsva2785-2mp-e-s specified in board_part file is either invalid or not available
WARNING: [Board 49-26] cannot add Board Part xilinx.com:vpk120:part0:1.1 available at /tools/Xilinx/Vivado/2024.2/data/xhub/boards/XilinxBoardStore/boards/Xilinx/vpk120/production/1.1/board.xml as part xcvp1202-vsva2785-2mp-e-s specified in board_part file is either invalid or not available
WARNING: [Board 49-26] cannot add Board Part xilinx.com:vpk120:part0:1.2 available at /tools/Xilinx/Vivado/2024.2/data/xhub/boards/XilinxBoardStore/boards/Xilinx/vpk120/production/1.2/board.xml as part xcvp1202-vsva2785-2mp-e-s specified in board_part file is either invalid or not available
WARNING: [Board 49-26] cannot add Board Part xilinx.com:zcu208ld:part0:2.0 available at /tools/Xilinx/Vivado/2024.2/data/xhub/boards/XilinxBoardStore/boards/Xilinx/zcu208ld/production/2.0/board.xml as part xczu58dr-fsvg1517-2-i specified in board_part file is either invalid or not available
WARNING: [Board 49-26] cannot add Board Part xilinx.com:zcu216ld:part0:2.0 available at /tools/Xilinx/Vivado/2024.2/data/xhub/boards/XilinxBoardStore/boards/Xilinx/zcu216ld/production/2.0/board.xml as part xczu59dr-ffvf1760-2-i specified in board_part file is either invalid or not available
WARNING: [Board 49-26] cannot add Board Part xilinx.com:zcu670ld:part0:1.0 available at /tools/Xilinx/Vivado/2024.2/data/xhub/boards/XilinxBoardStore/boards/Xilinx/zcu670ld/1.0/board.xml as part xczu57dr-fsve1156-2-i specified in board_part file is either invalid or not available
INFO: [IP_Flow 19-234] Refreshing IP repositories
INFO: [IP_Flow 19-1704] No user IP repositories specified
INFO: [IP_Flow 19-2313] Loaded Vivado IP repository '/tools/Xilinx/Vivado/2024.2/data/ip'.
current_fileset: Time (s): cpu = 00:00:38 ; elapsed = 00:00:19 . Memory (MB): peak = 10382.211 ; gain = 690.062 ; free physical = 619 ; free virtual = 4653
# xsim {work.top_level_wrapper_tb} -autoloadwcfg
Time resolution is 1 ps
open_wave_config /home/arthur/Documents/FPGA_master_class/project_and_non_project_mode/dotProductFifoFSM/work.top_level_wrapper_tb.wcfg
xsim: Time (s): cpu = 00:00:14 ; elapsed = 00:00:07 . Memory (MB): peak = 10764.039 ; gain = 381.828 ; free physical = 661 ; free virtual = 4721
run all
                   0 rst_n=0 start_processing=0 mem1_write_en=0 mem1_write_address=0 mem1_data_in=0 mem2_write_en=0 mem2_write_address=0 mem2_data_in=0 mem3_read_en=0 mem3_read_address=0 mem3_data_out=xx
                   5 rst_n=0 start_processing=0 mem1_write_en=0 mem1_write_address=0 mem1_data_in=0 mem2_write_en=0 mem2_write_address=0 mem2_data_in=0 mem3_read_en=0 mem3_read_address=0 mem3_data_out=01
                  20 rst_n=1 start_processing=0 mem1_write_en=0 mem1_write_address=0 mem1_data_in=0 mem2_write_en=0 mem2_write_address=0 mem2_data_in=0 mem3_read_en=0 mem3_read_address=0 mem3_data_out=01
                  25 rst_n=1 start_processing=0 mem1_write_en=1 mem1_write_address=0 mem1_data_in=x mem2_write_en=1 mem2_write_address=0 mem2_data_in=x mem3_read_en=0 mem3_read_address=0 mem3_data_out=00
                  35 rst_n=1 start_processing=0 mem1_write_en=0 mem1_write_address=0 mem1_data_in=x mem2_write_en=0 mem2_write_address=0 mem2_data_in=x mem3_read_en=0 mem3_read_address=0 mem3_data_out=00
                  65 rst_n=1 start_processing=0 mem1_write_en=0 mem1_write_address=0 mem1_data_in=x mem2_write_en=0 mem2_write_address=0 mem2_data_in=x mem3_read_en=0 mem3_read_address=0 mem3_data_out=01
                  75 rst_n=1 start_processing=0 mem1_write_en=1 mem1_write_address=1 mem1_data_in=33752069 mem2_write_en=1 mem2_write_address=1 mem2_data_in=33752069 mem3_read_en=0 mem3_read_address=0 mem3_data_out=00
                  85 rst_n=1 start_processing=0 mem1_write_en=0 mem1_write_address=1 mem1_data_in=33752069 mem2_write_en=0 mem2_write_address=1 mem2_data_in=33752069 mem3_read_en=0 mem3_read_address=0 mem3_data_out=00
                 115 rst_n=1 start_processing=0 mem1_write_en=0 mem1_write_address=1 mem1_data_in=33752069 mem2_write_en=0 mem2_write_address=1 mem2_data_in=33752069 mem3_read_en=0 mem3_read_address=0 mem3_data_out=01
                 125 rst_n=1 start_processing=0 mem1_write_en=1 mem1_write_address=2 mem1_data_in=50595078 mem2_write_en=1 mem2_write_address=2 mem2_data_in=50595078 mem3_read_en=0 mem3_read_address=0 mem3_data_out=00
                 135 rst_n=1 start_processing=0 mem1_write_en=0 mem1_write_address=2 mem1_data_in=50595078 mem2_write_en=0 mem2_write_address=2 mem2_data_in=50595078 mem3_read_en=0 mem3_read_address=0 mem3_data_out=00
                 165 rst_n=1 start_processing=0 mem1_write_en=0 mem1_write_address=2 mem1_data_in=50595078 mem2_write_en=0 mem2_write_address=2 mem2_data_in=50595078 mem3_read_en=0 mem3_read_address=0 mem3_data_out=01
                 175 rst_n=1 start_processing=0 mem1_write_en=1 mem1_write_address=3 mem1_data_in=67438087 mem2_write_en=1 mem2_write_address=3 mem2_data_in=67438087 mem3_read_en=0 mem3_read_address=0 mem3_data_out=00
                 185 rst_n=1 start_processing=0 mem1_write_en=0 mem1_write_address=3 mem1_data_in=67438087 mem2_write_en=0 mem2_write_address=3 mem2_data_in=67438087 mem3_read_en=0 mem3_read_address=0 mem3_data_out=00
                 215 rst_n=1 start_processing=0 mem1_write_en=0 mem1_write_address=3 mem1_data_in=67438087 mem2_write_en=0 mem2_write_address=3 mem2_data_in=67438087 mem3_read_en=0 mem3_read_address=0 mem3_data_out=01
                 225 rst_n=1 start_processing=0 mem1_write_en=1 mem1_write_address=4 mem1_data_in=84281096 mem2_write_en=1 mem2_write_address=4 mem2_data_in=84281096 mem3_read_en=0 mem3_read_address=0 mem3_data_out=00
                 235 rst_n=1 start_processing=0 mem1_write_en=0 mem1_write_address=4 mem1_data_in=84281096 mem2_write_en=0 mem2_write_address=4 mem2_data_in=84281096 mem3_read_en=0 mem3_read_address=0 mem3_data_out=00
                 265 rst_n=1 start_processing=0 mem1_write_en=0 mem1_write_address=4 mem1_data_in=84281096 mem2_write_en=0 mem2_write_address=4 mem2_data_in=84281096 mem3_read_en=0 mem3_read_address=0 mem3_data_out=01
                 275 rst_n=1 start_processing=0 mem1_write_en=1 mem1_write_address=5 mem1_data_in=101124105 mem2_write_en=1 mem2_write_address=5 mem2_data_in=101124105 mem3_read_en=0 mem3_read_address=0 mem3_data_out=00
                 285 rst_n=1 start_processing=0 mem1_write_en=0 mem1_write_address=5 mem1_data_in=101124105 mem2_write_en=0 mem2_write_address=5 mem2_data_in=101124105 mem3_read_en=0 mem3_read_address=0 mem3_data_out=00
                 315 rst_n=1 start_processing=0 mem1_write_en=0 mem1_write_address=5 mem1_data_in=101124105 mem2_write_en=0 mem2_write_address=5 mem2_data_in=101124105 mem3_read_en=0 mem3_read_address=0 mem3_data_out=01
                 325 rst_n=1 start_processing=0 mem1_write_en=1 mem1_write_address=6 mem1_data_in=117967114 mem2_write_en=1 mem2_write_address=6 mem2_data_in=117967114 mem3_read_en=0 mem3_read_address=0 mem3_data_out=00
                 335 rst_n=1 start_processing=0 mem1_write_en=0 mem1_write_address=6 mem1_data_in=117967114 mem2_write_en=0 mem2_write_address=6 mem2_data_in=117967114 mem3_read_en=0 mem3_read_address=0 mem3_data_out=00
                 365 rst_n=1 start_processing=0 mem1_write_en=0 mem1_write_address=6 mem1_data_in=117967114 mem2_write_en=0 mem2_write_address=6 mem2_data_in=117967114 mem3_read_en=0 mem3_read_address=0 mem3_data_out=01
                 375 rst_n=1 start_processing=0 mem1_write_en=1 mem1_write_address=7 mem1_data_in=134810123 mem2_write_en=1 mem2_write_address=7 mem2_data_in=134810123 mem3_read_en=0 mem3_read_address=0 mem3_data_out=00
                 385 rst_n=1 start_processing=0 mem1_write_en=0 mem1_write_address=7 mem1_data_in=134810123 mem2_write_en=0 mem2_write_address=7 mem2_data_in=134810123 mem3_read_en=0 mem3_read_address=0 mem3_data_out=00
                 415 rst_n=1 start_processing=0 mem1_write_en=0 mem1_write_address=7 mem1_data_in=134810123 mem2_write_en=0 mem2_write_address=7 mem2_data_in=134810123 mem3_read_en=0 mem3_read_address=0 mem3_data_out=01
                 425 rst_n=1 start_processing=0 mem1_write_en=1 mem1_write_address=8 mem1_data_in=151653132 mem2_write_en=1 mem2_write_address=8 mem2_data_in=151653132 mem3_read_en=0 mem3_read_address=0 mem3_data_out=00
                 435 rst_n=1 start_processing=0 mem1_write_en=0 mem1_write_address=8 mem1_data_in=151653132 mem2_write_en=0 mem2_write_address=8 mem2_data_in=151653132 mem3_read_en=0 mem3_read_address=0 mem3_data_out=00
                 465 rst_n=1 start_processing=0 mem1_write_en=0 mem1_write_address=8 mem1_data_in=151653132 mem2_write_en=0 mem2_write_address=8 mem2_data_in=151653132 mem3_read_en=0 mem3_read_address=0 mem3_data_out=01
                 475 rst_n=1 start_processing=0 mem1_write_en=1 mem1_write_address=9 mem1_data_in=168496141 mem2_write_en=1 mem2_write_address=9 mem2_data_in=168496141 mem3_read_en=0 mem3_read_address=0 mem3_data_out=00
                 485 rst_n=1 start_processing=0 mem1_write_en=0 mem1_write_address=9 mem1_data_in=168496141 mem2_write_en=0 mem2_write_address=9 mem2_data_in=168496141 mem3_read_en=0 mem3_read_address=0 mem3_data_out=00
                 515 rst_n=1 start_processing=0 mem1_write_en=0 mem1_write_address=9 mem1_data_in=168496141 mem2_write_en=0 mem2_write_address=9 mem2_data_in=168496141 mem3_read_en=0 mem3_read_address=0 mem3_data_out=01
                 525 rst_n=1 start_processing=0 mem1_write_en=1 mem1_write_address=10 mem1_data_in=185339150 mem2_write_en=1 mem2_write_address=10 mem2_data_in=185339150 mem3_read_en=0 mem3_read_address=0 mem3_data_out=00
                 535 rst_n=1 start_processing=0 mem1_write_en=0 mem1_write_address=10 mem1_data_in=185339150 mem2_write_en=0 mem2_write_address=10 mem2_data_in=185339150 mem3_read_en=0 mem3_read_address=0 mem3_data_out=00
                 565 rst_n=1 start_processing=0 mem1_write_en=0 mem1_write_address=10 mem1_data_in=185339150 mem2_write_en=0 mem2_write_address=10 mem2_data_in=185339150 mem3_read_en=0 mem3_read_address=0 mem3_data_out=01
                 575 rst_n=1 start_processing=0 mem1_write_en=1 mem1_write_address=11 mem1_data_in=202182159 mem2_write_en=1 mem2_write_address=11 mem2_data_in=202182159 mem3_read_en=0 mem3_read_address=0 mem3_data_out=00
                 585 rst_n=1 start_processing=0 mem1_write_en=0 mem1_write_address=11 mem1_data_in=202182159 mem2_write_en=0 mem2_write_address=11 mem2_data_in=202182159 mem3_read_en=0 mem3_read_address=0 mem3_data_out=00
                 615 rst_n=1 start_processing=0 mem1_write_en=0 mem1_write_address=11 mem1_data_in=202182159 mem2_write_en=0 mem2_write_address=11 mem2_data_in=202182159 mem3_read_en=0 mem3_read_address=0 mem3_data_out=01
                 625 rst_n=1 start_processing=0 mem1_write_en=1 mem1_write_address=12 mem1_data_in=219025168 mem2_write_en=1 mem2_write_address=12 mem2_data_in=219025168 mem3_read_en=0 mem3_read_address=0 mem3_data_out=00
                 635 rst_n=1 start_processing=0 mem1_write_en=0 mem1_write_address=12 mem1_data_in=219025168 mem2_write_en=0 mem2_write_address=12 mem2_data_in=219025168 mem3_read_en=0 mem3_read_address=0 mem3_data_out=00
                 665 rst_n=1 start_processing=0 mem1_write_en=0 mem1_write_address=12 mem1_data_in=219025168 mem2_write_en=0 mem2_write_address=12 mem2_data_in=219025168 mem3_read_en=0 mem3_read_address=0 mem3_data_out=01
                 675 rst_n=1 start_processing=0 mem1_write_en=1 mem1_write_address=13 mem1_data_in=235868177 mem2_write_en=1 mem2_write_address=13 mem2_data_in=235868177 mem3_read_en=0 mem3_read_address=0 mem3_data_out=00
                 685 rst_n=1 start_processing=0 mem1_write_en=0 mem1_write_address=13 mem1_data_in=235868177 mem2_write_en=0 mem2_write_address=13 mem2_data_in=235868177 mem3_read_en=0 mem3_read_address=0 mem3_data_out=00
                 715 rst_n=1 start_processing=0 mem1_write_en=0 mem1_write_address=13 mem1_data_in=235868177 mem2_write_en=0 mem2_write_address=13 mem2_data_in=235868177 mem3_read_en=0 mem3_read_address=0 mem3_data_out=01
                 725 rst_n=1 start_processing=0 mem1_write_en=1 mem1_write_address=14 mem1_data_in=252711186 mem2_write_en=1 mem2_write_address=14 mem2_data_in=252711186 mem3_read_en=0 mem3_read_address=0 mem3_data_out=00
                 735 rst_n=1 start_processing=0 mem1_write_en=0 mem1_write_address=14 mem1_data_in=252711186 mem2_write_en=0 mem2_write_address=14 mem2_data_in=252711186 mem3_read_en=0 mem3_read_address=0 mem3_data_out=00
                 765 rst_n=1 start_processing=0 mem1_write_en=0 mem1_write_address=14 mem1_data_in=252711186 mem2_write_en=0 mem2_write_address=14 mem2_data_in=252711186 mem3_read_en=0 mem3_read_address=0 mem3_data_out=01
                 775 rst_n=1 start_processing=0 mem1_write_en=1 mem1_write_address=15 mem1_data_in=269554195 mem2_write_en=1 mem2_write_address=15 mem2_data_in=269554195 mem3_read_en=0 mem3_read_address=0 mem3_data_out=00
                 785 rst_n=1 start_processing=0 mem1_write_en=0 mem1_write_address=15 mem1_data_in=269554195 mem2_write_en=0 mem2_write_address=15 mem2_data_in=269554195 mem3_read_en=0 mem3_read_address=0 mem3_data_out=00
                 815 rst_n=1 start_processing=0 mem1_write_en=0 mem1_write_address=15 mem1_data_in=269554195 mem2_write_en=0 mem2_write_address=15 mem2_data_in=269554195 mem3_read_en=0 mem3_read_address=0 mem3_data_out=01
                 825 rst_n=1 start_processing=0 mem1_write_en=1 mem1_write_address=16 mem1_data_in=286397204 mem2_write_en=1 mem2_write_address=16 mem2_data_in=286397204 mem3_read_en=0 mem3_read_address=0 mem3_data_out=00
                 835 rst_n=1 start_processing=0 mem1_write_en=0 mem1_write_address=16 mem1_data_in=286397204 mem2_write_en=0 mem2_write_address=16 mem2_data_in=286397204 mem3_read_en=0 mem3_read_address=0 mem3_data_out=00
                 865 rst_n=1 start_processing=0 mem1_write_en=0 mem1_write_address=16 mem1_data_in=286397204 mem2_write_en=0 mem2_write_address=16 mem2_data_in=286397204 mem3_read_en=0 mem3_read_address=0 mem3_data_out=01
                 875 rst_n=1 start_processing=0 mem1_write_en=1 mem1_write_address=17 mem1_data_in=303240213 mem2_write_en=1 mem2_write_address=17 mem2_data_in=303240213 mem3_read_en=0 mem3_read_address=0 mem3_data_out=00
                 885 rst_n=1 start_processing=0 mem1_write_en=0 mem1_write_address=17 mem1_data_in=303240213 mem2_write_en=0 mem2_write_address=17 mem2_data_in=303240213 mem3_read_en=0 mem3_read_address=0 mem3_data_out=00
                 915 rst_n=1 start_processing=0 mem1_write_en=0 mem1_write_address=17 mem1_data_in=303240213 mem2_write_en=0 mem2_write_address=17 mem2_data_in=303240213 mem3_read_en=0 mem3_read_address=0 mem3_data_out=01
                 925 rst_n=1 start_processing=0 mem1_write_en=1 mem1_write_address=18 mem1_data_in=320083222 mem2_write_en=1 mem2_write_address=18 mem2_data_in=320083222 mem3_read_en=0 mem3_read_address=0 mem3_data_out=00
                 935 rst_n=1 start_processing=0 mem1_write_en=0 mem1_write_address=18 mem1_data_in=320083222 mem2_write_en=0 mem2_write_address=18 mem2_data_in=320083222 mem3_read_en=0 mem3_read_address=0 mem3_data_out=00
                 965 rst_n=1 start_processing=0 mem1_write_en=0 mem1_write_address=18 mem1_data_in=320083222 mem2_write_en=0 mem2_write_address=18 mem2_data_in=320083222 mem3_read_en=0 mem3_read_address=0 mem3_data_out=01
                 975 rst_n=1 start_processing=0 mem1_write_en=1 mem1_write_address=19 mem1_data_in=336926231 mem2_write_en=1 mem2_write_address=19 mem2_data_in=336926231 mem3_read_en=0 mem3_read_address=0 mem3_data_out=00
                 985 rst_n=1 start_processing=0 mem1_write_en=0 mem1_write_address=19 mem1_data_in=336926231 mem2_write_en=0 mem2_write_address=19 mem2_data_in=336926231 mem3_read_en=0 mem3_read_address=0 mem3_data_out=00
                1015 rst_n=1 start_processing=0 mem1_write_en=0 mem1_write_address=19 mem1_data_in=336926231 mem2_write_en=0 mem2_write_address=19 mem2_data_in=336926231 mem3_read_en=0 mem3_read_address=0 mem3_data_out=01
                1025 rst_n=1 start_processing=0 mem1_write_en=1 mem1_write_address=20 mem1_data_in=353769240 mem2_write_en=1 mem2_write_address=20 mem2_data_in=353769240 mem3_read_en=0 mem3_read_address=0 mem3_data_out=00
                1035 rst_n=1 start_processing=0 mem1_write_en=0 mem1_write_address=20 mem1_data_in=353769240 mem2_write_en=0 mem2_write_address=20 mem2_data_in=353769240 mem3_read_en=0 mem3_read_address=0 mem3_data_out=00
                1065 rst_n=1 start_processing=0 mem1_write_en=0 mem1_write_address=20 mem1_data_in=353769240 mem2_write_en=0 mem2_write_address=20 mem2_data_in=353769240 mem3_read_en=0 mem3_read_address=0 mem3_data_out=01
                1075 rst_n=1 start_processing=0 mem1_write_en=1 mem1_write_address=21 mem1_data_in=370612249 mem2_write_en=1 mem2_write_address=21 mem2_data_in=370612249 mem3_read_en=0 mem3_read_address=0 mem3_data_out=00
                1085 rst_n=1 start_processing=0 mem1_write_en=0 mem1_write_address=21 mem1_data_in=370612249 mem2_write_en=0 mem2_write_address=21 mem2_data_in=370612249 mem3_read_en=0 mem3_read_address=0 mem3_data_out=00
                1115 rst_n=1 start_processing=0 mem1_write_en=0 mem1_write_address=21 mem1_data_in=370612249 mem2_write_en=0 mem2_write_address=21 mem2_data_in=370612249 mem3_read_en=0 mem3_read_address=0 mem3_data_out=01
                1125 rst_n=1 start_processing=0 mem1_write_en=1 mem1_write_address=22 mem1_data_in=387455258 mem2_write_en=1 mem2_write_address=22 mem2_data_in=387455258 mem3_read_en=0 mem3_read_address=0 mem3_data_out=00
                1135 rst_n=1 start_processing=0 mem1_write_en=0 mem1_write_address=22 mem1_data_in=387455258 mem2_write_en=0 mem2_write_address=22 mem2_data_in=387455258 mem3_read_en=0 mem3_read_address=0 mem3_data_out=00
                1165 rst_n=1 start_processing=0 mem1_write_en=0 mem1_write_address=22 mem1_data_in=387455258 mem2_write_en=0 mem2_write_address=22 mem2_data_in=387455258 mem3_read_en=0 mem3_read_address=0 mem3_data_out=01
                1175 rst_n=1 start_processing=0 mem1_write_en=1 mem1_write_address=23 mem1_data_in=404298267 mem2_write_en=1 mem2_write_address=23 mem2_data_in=404298267 mem3_read_en=0 mem3_read_address=0 mem3_data_out=00
                1185 rst_n=1 start_processing=0 mem1_write_en=0 mem1_write_address=23 mem1_data_in=404298267 mem2_write_en=0 mem2_write_address=23 mem2_data_in=404298267 mem3_read_en=0 mem3_read_address=0 mem3_data_out=00
                1215 rst_n=1 start_processing=0 mem1_write_en=0 mem1_write_address=23 mem1_data_in=404298267 mem2_write_en=0 mem2_write_address=23 mem2_data_in=404298267 mem3_read_en=0 mem3_read_address=0 mem3_data_out=01
                1225 rst_n=1 start_processing=0 mem1_write_en=1 mem1_write_address=24 mem1_data_in=421141276 mem2_write_en=1 mem2_write_address=24 mem2_data_in=421141276 mem3_read_en=0 mem3_read_address=0 mem3_data_out=00
                1235 rst_n=1 start_processing=0 mem1_write_en=0 mem1_write_address=24 mem1_data_in=421141276 mem2_write_en=0 mem2_write_address=24 mem2_data_in=421141276 mem3_read_en=0 mem3_read_address=0 mem3_data_out=00
                1265 rst_n=1 start_processing=0 mem1_write_en=0 mem1_write_address=24 mem1_data_in=421141276 mem2_write_en=0 mem2_write_address=24 mem2_data_in=421141276 mem3_read_en=0 mem3_read_address=0 mem3_data_out=01
                1275 rst_n=1 start_processing=0 mem1_write_en=1 mem1_write_address=25 mem1_data_in=437984285 mem2_write_en=1 mem2_write_address=25 mem2_data_in=437984285 mem3_read_en=0 mem3_read_address=0 mem3_data_out=00
                1285 rst_n=1 start_processing=0 mem1_write_en=0 mem1_write_address=25 mem1_data_in=437984285 mem2_write_en=0 mem2_write_address=25 mem2_data_in=437984285 mem3_read_en=0 mem3_read_address=0 mem3_data_out=00
                1315 rst_n=1 start_processing=0 mem1_write_en=0 mem1_write_address=25 mem1_data_in=437984285 mem2_write_en=0 mem2_write_address=25 mem2_data_in=437984285 mem3_read_en=0 mem3_read_address=0 mem3_data_out=01
                1325 rst_n=1 start_processing=0 mem1_write_en=1 mem1_write_address=26 mem1_data_in=454827294 mem2_write_en=1 mem2_write_address=26 mem2_data_in=454827294 mem3_read_en=0 mem3_read_address=0 mem3_data_out=00
                1335 rst_n=1 start_processing=0 mem1_write_en=0 mem1_write_address=26 mem1_data_in=454827294 mem2_write_en=0 mem2_write_address=26 mem2_data_in=454827294 mem3_read_en=0 mem3_read_address=0 mem3_data_out=00
                1365 rst_n=1 start_processing=0 mem1_write_en=0 mem1_write_address=26 mem1_data_in=454827294 mem2_write_en=0 mem2_write_address=26 mem2_data_in=454827294 mem3_read_en=0 mem3_read_address=0 mem3_data_out=01
                1375 rst_n=1 start_processing=0 mem1_write_en=1 mem1_write_address=27 mem1_data_in=471670303 mem2_write_en=1 mem2_write_address=27 mem2_data_in=471670303 mem3_read_en=0 mem3_read_address=0 mem3_data_out=00
                1385 rst_n=1 start_processing=0 mem1_write_en=0 mem1_write_address=27 mem1_data_in=471670303 mem2_write_en=0 mem2_write_address=27 mem2_data_in=471670303 mem3_read_en=0 mem3_read_address=0 mem3_data_out=00
                1415 rst_n=1 start_processing=0 mem1_write_en=0 mem1_write_address=27 mem1_data_in=471670303 mem2_write_en=0 mem2_write_address=27 mem2_data_in=471670303 mem3_read_en=0 mem3_read_address=0 mem3_data_out=01
                1425 rst_n=1 start_processing=0 mem1_write_en=1 mem1_write_address=28 mem1_data_in=488513312 mem2_write_en=1 mem2_write_address=28 mem2_data_in=488513312 mem3_read_en=0 mem3_read_address=0 mem3_data_out=00
                1435 rst_n=1 start_processing=0 mem1_write_en=0 mem1_write_address=28 mem1_data_in=488513312 mem2_write_en=0 mem2_write_address=28 mem2_data_in=488513312 mem3_read_en=0 mem3_read_address=0 mem3_data_out=00
                1465 rst_n=1 start_processing=0 mem1_write_en=0 mem1_write_address=28 mem1_data_in=488513312 mem2_write_en=0 mem2_write_address=28 mem2_data_in=488513312 mem3_read_en=0 mem3_read_address=0 mem3_data_out=01
                1475 rst_n=1 start_processing=0 mem1_write_en=1 mem1_write_address=29 mem1_data_in=505356321 mem2_write_en=1 mem2_write_address=29 mem2_data_in=505356321 mem3_read_en=0 mem3_read_address=0 mem3_data_out=00
                1485 rst_n=1 start_processing=0 mem1_write_en=0 mem1_write_address=29 mem1_data_in=505356321 mem2_write_en=0 mem2_write_address=29 mem2_data_in=505356321 mem3_read_en=0 mem3_read_address=0 mem3_data_out=00
                1515 rst_n=1 start_processing=0 mem1_write_en=0 mem1_write_address=29 mem1_data_in=505356321 mem2_write_en=0 mem2_write_address=29 mem2_data_in=505356321 mem3_read_en=0 mem3_read_address=0 mem3_data_out=01
                1525 rst_n=1 start_processing=0 mem1_write_en=1 mem1_write_address=30 mem1_data_in=522199330 mem2_write_en=1 mem2_write_address=30 mem2_data_in=522199330 mem3_read_en=0 mem3_read_address=0 mem3_data_out=00
                1535 rst_n=1 start_processing=0 mem1_write_en=0 mem1_write_address=30 mem1_data_in=522199330 mem2_write_en=0 mem2_write_address=30 mem2_data_in=522199330 mem3_read_en=0 mem3_read_address=0 mem3_data_out=00
                1565 rst_n=1 start_processing=0 mem1_write_en=0 mem1_write_address=30 mem1_data_in=522199330 mem2_write_en=0 mem2_write_address=30 mem2_data_in=522199330 mem3_read_en=0 mem3_read_address=0 mem3_data_out=01
                1575 rst_n=1 start_processing=0 mem1_write_en=1 mem1_write_address=31 mem1_data_in=539042339 mem2_write_en=1 mem2_write_address=31 mem2_data_in=539042339 mem3_read_en=0 mem3_read_address=0 mem3_data_out=00
                1585 rst_n=1 start_processing=0 mem1_write_en=0 mem1_write_address=31 mem1_data_in=539042339 mem2_write_en=0 mem2_write_address=31 mem2_data_in=539042339 mem3_read_en=0 mem3_read_address=0 mem3_data_out=00
                1615 rst_n=1 start_processing=0 mem1_write_en=0 mem1_write_address=31 mem1_data_in=539042339 mem2_write_en=0 mem2_write_address=31 mem2_data_in=539042339 mem3_read_en=0 mem3_read_address=0 mem3_data_out=01
