fifo1/xsim_163819.backup.log
#-----------------------------------------------------------
# xsim v2024.2 (64-bit)
# SW Build 5239630 on Fri Nov 08 22:34:34 MST 2024
# IP Build 5239520 on Sun Nov 10 16:12:51 MST 2024
# SharedData Build 5239561 on Fri Nov 08 14:39:27 MST 2024
# Start of session at: Mon Oct  6 04:40:00 2025
# Process ID         : 163819
# Current directory  : /home/arthur/Documents/FPGA_master_class/project_and_non_project_mode/fifo1
# Command line       : xsim -mode tcl -source {xsim.dir/work.fifo_tb/xsim_script.tcl}
# Log file           : /home/arthur/Documents/FPGA_master_class/project_and_non_project_mode/fifo1/xsim.log
# Journal file       : /home/arthur/Documents/FPGA_master_class/project_and_non_project_mode/fifo1/xsim.jou
# Running On         : arthur-nathaniel
# Platform           : Ubuntu
# Operating System   : Ubuntu 24.04.3 LTS
# Processor Detail   : 13th Gen Intel(R) Core(TM) i3-1315U
# CPU Frequency      : 1508.207 MHz
# CPU Physical cores : 6
# CPU Logical cores  : 8
# Host memory        : 8038 MB
# Swap memory        : 4294 MB
# Total Virtual      : 12333 MB
# Available Virtual  : 5141 MB
#-----------------------------------------------------------
source xsim.dir/work.fifo_tb/xsim_script.tcl
# xsim {work.fifo_tb} -autoloadwcfg -runall
Time resolution is 1 ps
open_wave_config /home/arthur/Documents/FPGA_master_class/project_and_non_project_mode/fifo1/work.fifo_tb.wcfg
run -all
[0]   wr_en = 0, rd_en = 0, data_in =   x, data_out =   x, full = x, empty = x
[5000]   wr_en = 0, rd_en = 0, data_in =   x, data_out =   x, full = 0, empty = 1
[20000]   wr_en = 1, rd_en = 1, data_in =  22, data_out =   x, full = 0, empty = 1
[25000]   wr_en = 1, rd_en = 1, data_in =  22, data_out =   x, full = 0, empty = 0
[30000]   wr_en = 1, rd_en = 1, data_in =  23, data_out =   x, full = 0, empty = 0
[35000]   wr_en = 1, rd_en = 1, data_in =  23, data_out =  22, full = 0, empty = 0
[40000]   wr_en = 1, rd_en = 1, data_in =  24, data_out =  22, full = 0, empty = 0
[45000]   wr_en = 1, rd_en = 1, data_in =  24, data_out =  23, full = 0, empty = 0
[50000]   wr_en = 1, rd_en = 1, data_in =  25, data_out =  23, full = 0, empty = 0
[55000]   wr_en = 1, rd_en = 1, data_in =  25, data_out =  24, full = 0, empty = 0
[60000]   wr_en = 1, rd_en = 1, data_in =  26, data_out =  24, full = 0, empty = 0
[65000]   wr_en = 1, rd_en = 1, data_in =  26, data_out =  25, full = 0, empty = 0
[70000]   wr_en = 1, rd_en = 1, data_in =  27, data_out =  25, full = 0, empty = 0
[75000]   wr_en = 1, rd_en = 1, data_in =  27, data_out =  26, full = 0, empty = 0
[80000]   wr_en = 1, rd_en = 1, data_in =  28, data_out =  26, full = 0, empty = 0
[85000]   wr_en = 1, rd_en = 1, data_in =  28, data_out =  27, full = 0, empty = 0
[90000]   wr_en = 1, rd_en = 1, data_in =  29, data_out =  27, full = 0, empty = 0
[95000]   wr_en = 1, rd_en = 1, data_in =  29, data_out =  28, full = 0, empty = 0
[100000]   wr_en = 1, rd_en = 1, data_in =  30, data_out =  28, full = 0, empty = 0
[105000]   wr_en = 1, rd_en = 1, data_in =  30, data_out =  29, full = 0, empty = 0
[110000]   wr_en = 1, rd_en = 1, data_in =  31, data_out =  29, full = 0, empty = 0
[115000]   wr_en = 1, rd_en = 1, data_in =  31, data_out =  30, full = 0, empty = 0
[120000]   wr_en = 1, rd_en = 1, data_in =  32, data_out =  30, full = 0, empty = 0
[125000]   wr_en = 1, rd_en = 1, data_in =  32, data_out =  31, full = 0, empty = 0
[130000]   wr_en = 1, rd_en = 1, data_in =  33, data_out =  31, full = 0, empty = 0
[135000]   wr_en = 1, rd_en = 1, data_in =  33, data_out =  32, full = 0, empty = 0
[140000]   wr_en = 1, rd_en = 1, data_in =  34, data_out =  32, full = 0, empty = 0
[145000]   wr_en = 1, rd_en = 1, data_in =  34, data_out =  33, full = 0, empty = 0
[150000]   wr_en = 1, rd_en = 1, data_in =  35, data_out =  33, full = 0, empty = 0
[155000]   wr_en = 1, rd_en = 1, data_in =  35, data_out =  34, full = 0, empty = 0
[160000]   wr_en = 1, rd_en = 1, data_in =  36, data_out =  34, full = 0, empty = 0
[165000]   wr_en = 1, rd_en = 1, data_in =  36, data_out =  35, full = 0, empty = 0
[170000]   wr_en = 1, rd_en = 1, data_in =  37, data_out =  35, full = 0, empty = 0
[175000]   wr_en = 1, rd_en = 1, data_in =  37, data_out =  36, full = 0, empty = 0
[180000]   wr_en = 1, rd_en = 1, data_in =  38, data_out =  36, full = 0, empty = 0
[185000]   wr_en = 1, rd_en = 1, data_in =  38, data_out =  37, full = 0, empty = 0
[190000]   wr_en = 1, rd_en = 1, data_in =  39, data_out =  37, full = 0, empty = 0
[195000]   wr_en = 1, rd_en = 1, data_in =  39, data_out =  38, full = 0, empty = 0
[200000]   wr_en = 1, rd_en = 1, data_in =  40, data_out =  38, full = 0, empty = 0
[205000]   wr_en = 1, rd_en = 1, data_in =  40, data_out =  39, full = 0, empty = 0
[210000]   wr_en = 1, rd_en = 1, data_in =  41, data_out =  39, full = 0, empty = 0
[215000]   wr_en = 1, rd_en = 1, data_in =  41, data_out =  40, full = 0, empty = 0
[220000]   wr_en = 1, rd_en = 1, data_in =  42, data_out =  40, full = 0, empty = 0
[225000]   wr_en = 1, rd_en = 1, data_in =  42, data_out =  41, full = 0, empty = 0
[230000]   wr_en = 1, rd_en = 1, data_in =  43, data_out =  41, full = 0, empty = 0
[235000]   wr_en = 1, rd_en = 1, data_in =  43, data_out =  42, full = 0, empty = 0
[240000]   wr_en = 1, rd_en = 1, data_in =  44, data_out =  42, full = 0, empty = 0
[245000]   wr_en = 1, rd_en = 1, data_in =  44, data_out =  43, full = 0, empty = 0
[250000]   wr_en = 1, rd_en = 1, data_in =  45, data_out =  43, full = 0, empty = 0
[255000]   wr_en = 1, rd_en = 1, data_in =  45, data_out =  44, full = 0, empty = 0
[260000]   wr_en = 1, rd_en = 1, data_in =  46, data_out =  44, full = 0, empty = 0
[265000]   wr_en = 1, rd_en = 1, data_in =  46, data_out =  45, full = 0, empty = 0
[270000]   wr_en = 1, rd_en = 1, data_in =  47, data_out =  45, full = 0, empty = 0
[275000]   wr_en = 1, rd_en = 1, data_in =  47, data_out =  46, full = 0, empty = 0
[280000]   wr_en = 1, rd_en = 1, data_in =  48, data_out =  46, full = 0, empty = 0
[285000]   wr_en = 1, rd_en = 1, data_in =  48, data_out =  47, full = 0, empty = 0
[290000]   wr_en = 1, rd_en = 1, data_in =  49, data_out =  47, full = 0, empty = 0
[295000]   wr_en = 1, rd_en = 1, data_in =  49, data_out =  48, full = 0, empty = 0
[300000]   wr_en = 1, rd_en = 1, data_in =  50, data_out =  48, full = 0, empty = 0
[305000]   wr_en = 1, rd_en = 1, data_in =  50, data_out =  49, full = 0, empty = 0
[310000]   wr_en = 1, rd_en = 1, data_in =  51, data_out =  49, full = 0, empty = 0
[315000]   wr_en = 1, rd_en = 1, data_in =  51, data_out =  50, full = 0, empty = 0
[320000]   wr_en = 1, rd_en = 1, data_in =  52, data_out =  50, full = 0, empty = 0
[325000]   wr_en = 1, rd_en = 1, data_in =  52, data_out =  51, full = 0, empty = 0
[330000]   wr_en = 1, rd_en = 1, data_in =  53, data_out =  51, full = 0, empty = 0
[335000]   wr_en = 1, rd_en = 1, data_in =  53, data_out =  52, full = 0, empty = 0
[340000]   wr_en = 1, rd_en = 1, data_in =  54, data_out =  52, full = 0, empty = 0
[345000]   wr_en = 1, rd_en = 1, data_in =  54, data_out =  53, full = 0, empty = 0
[350000]   wr_en = 1, rd_en = 1, data_in =  55, data_out =  53, full = 0, empty = 0
[355000]   wr_en = 1, rd_en = 1, data_in =  55, data_out =  54, full = 0, empty = 0
[360000]   wr_en = 1, rd_en = 1, data_in =  56, data_out =  54, full = 0, empty = 0
[365000]   wr_en = 1, rd_en = 1, data_in =  56, data_out =  55, full = 0, empty = 0
[370000]   wr_en = 1, rd_en = 1, data_in =  57, data_out =  55, full = 0, empty = 0
[375000]   wr_en = 1, rd_en = 1, data_in =  57, data_out =  56, full = 0, empty = 0
[380000]   wr_en = 1, rd_en = 1, data_in =  58, data_out =  56, full = 0, empty = 0
[385000]   wr_en = 1, rd_en = 1, data_in =  58, data_out =  57, full = 0, empty = 0
[390000]   wr_en = 1, rd_en = 1, data_in =  59, data_out =  57, full = 0, empty = 0
[395000]   wr_en = 1, rd_en = 1, data_in =  59, data_out =  58, full = 0, empty = 0
[400000]   wr_en = 1, rd_en = 1, data_in =  60, data_out =  58, full = 0, empty = 0
[405000]   wr_en = 1, rd_en = 1, data_in =  60, data_out =  59, full = 0, empty = 0
[410000]   wr_en = 1, rd_en = 1, data_in =  61, data_out =  59, full = 0, empty = 0
[415000]   wr_en = 1, rd_en = 1, data_in =  61, data_out =  60, full = 0, empty = 0
[420000]   wr_en = 1, rd_en = 1, data_in =  62, data_out =  60, full = 0, empty = 0
[425000]   wr_en = 1, rd_en = 1, data_in =  62, data_out =  61, full = 0, empty = 0
[430000]   wr_en = 1, rd_en = 1, data_in =  63, data_out =  61, full = 0, empty = 0
[435000]   wr_en = 1, rd_en = 1, data_in =  63, data_out =  62, full = 0, empty = 0
[440000]   wr_en = 1, rd_en = 1, data_in =  64, data_out =  62, full = 0, empty = 0
[445000]   wr_en = 1, rd_en = 1, data_in =  64, data_out =  63, full = 0, empty = 0
[450000]   wr_en = 1, rd_en = 1, data_in =  65, data_out =  63, full = 0, empty = 0
[455000]   wr_en = 1, rd_en = 1, data_in =  65, data_out =  64, full = 0, empty = 0
[460000]   wr_en = 1, rd_en = 1, data_in =  66, data_out =  64, full = 0, empty = 0
[465000]   wr_en = 1, rd_en = 1, data_in =  66, data_out =  65, full = 0, empty = 0
[470000]   wr_en = 1, rd_en = 1, data_in =  67, data_out =  65, full = 0, empty = 0
[475000]   wr_en = 1, rd_en = 1, data_in =  67, data_out =  66, full = 0, empty = 0
[480000]   wr_en = 1, rd_en = 1, data_in =  68, data_out =  66, full = 0, empty = 0
[485000]   wr_en = 1, rd_en = 1, data_in =  68, data_out =  67, full = 0, empty = 0
[490000]   wr_en = 1, rd_en = 1, data_in =  69, data_out =  67, full = 0, empty = 0
[495000]   wr_en = 1, rd_en = 1, data_in =  69, data_out =  68, full = 0, empty = 0
[500000]   wr_en = 1, rd_en = 1, data_in =  70, data_out =  68, full = 0, empty = 0
[505000]   wr_en = 1, rd_en = 1, data_in =  70, data_out =  69, full = 0, empty = 0
[510000]   wr_en = 1, rd_en = 1, data_in =  71, data_out =  69, full = 0, empty = 0
[515000]   wr_en = 1, rd_en = 1, data_in =  71, data_out =  70, full = 0, empty = 0
[520000]   wr_en = 1, rd_en = 1, data_in =  72, data_out =  70, full = 0, empty = 0
[525000]   wr_en = 1, rd_en = 1, data_in =  72, data_out =  71, full = 0, empty = 0
[530000]   wr_en = 1, rd_en = 1, data_in =  73, data_out =  71, full = 0, empty = 0
[535000]   wr_en = 1, rd_en = 1, data_in =  73, data_out =  72, full = 0, empty = 0
[540000]   wr_en = 1, rd_en = 1, data_in =  74, data_out =  72, full = 0, empty = 0
[545000]   wr_en = 1, rd_en = 1, data_in =  74, data_out =  73, full = 0, empty = 0
[550000]   wr_en = 1, rd_en = 1, data_in =  75, data_out =  73, full = 0, empty = 0
[555000]   wr_en = 1, rd_en = 1, data_in =  75, data_out =  74, full = 0, empty = 0
[560000]   wr_en = 1, rd_en = 1, data_in =  76, data_out =  74, full = 0, empty = 0
[565000]   wr_en = 1, rd_en = 1, data_in =  76, data_out =  75, full = 0, empty = 0
[570000]   wr_en = 1, rd_en = 1, data_in =  77, data_out =  75, full = 0, empty = 0
[575000]   wr_en = 1, rd_en = 1, data_in =  77, data_out =  76, full = 0, empty = 0
[580000]   wr_en = 1, rd_en = 1, data_in =  78, data_out =  76, full = 0, empty = 0
[585000]   wr_en = 1, rd_en = 1, data_in =  78, data_out =  77, full = 0, empty = 0
[590000]   wr_en = 1, rd_en = 1, data_in =  79, data_out =  77, full = 0, empty = 0
[595000]   wr_en = 1, rd_en = 1, data_in =  79, data_out =  78, full = 0, empty = 0
[600000]   wr_en = 1, rd_en = 1, data_in =  80, data_out =  78, full = 0, empty = 0
[605000]   wr_en = 1, rd_en = 1, data_in =  80, data_out =  79, full = 0, empty = 0
[610000]   wr_en = 1, rd_en = 1, data_in =  81, data_out =  79, full = 0, empty = 0
[615000]   wr_en = 1, rd_en = 1, data_in =  81, data_out =  80, full = 0, empty = 0
[620000]   wr_en = 1, rd_en = 1, data_in =  82, data_out =  80, full = 0, empty = 0
[625000]   wr_en = 1, rd_en = 1, data_in =  82, data_out =  81, full = 0, empty = 0
[630000]   wr_en = 1, rd_en = 1, data_in =  83, data_out =  81, full = 0, empty = 0
[635000]   wr_en = 1, rd_en = 1, data_in =  83, data_out =  82, full = 0, empty = 0
[640000]   wr_en = 1, rd_en = 1, data_in =  84, data_out =  82, full = 0, empty = 0
[645000]   wr_en = 1, rd_en = 1, data_in =  84, data_out =  83, full = 0, empty = 0
[650000]   wr_en = 1, rd_en = 1, data_in =  85, data_out =  83, full = 0, empty = 0
[655000]   wr_en = 1, rd_en = 1, data_in =  85, data_out =  84, full = 0, empty = 0
[660000]   wr_en = 1, rd_en = 1, data_in =  86, data_out =  84, full = 0, empty = 0
[665000]   wr_en = 1, rd_en = 1, data_in =  86, data_out =  85, full = 0, empty = 0
[670000]   wr_en = 1, rd_en = 1, data_in =  87, data_out =  85, full = 0, empty = 0
[675000]   wr_en = 1, rd_en = 1, data_in =  87, data_out =  86, full = 0, empty = 0
[680000]   wr_en = 1, rd_en = 1, data_in =  88, data_out =  86, full = 0, empty = 0
[685000]   wr_en = 1, rd_en = 1, data_in =  88, data_out =  87, full = 0, empty = 0
[690000]   wr_en = 1, rd_en = 1, data_in =  89, data_out =  87, full = 0, empty = 0
[695000]   wr_en = 1, rd_en = 1, data_in =  89, data_out =  88, full = 0, empty = 0
[700000]   wr_en = 1, rd_en = 1, data_in =  90, data_out =  88, full = 0, empty = 0
[705000]   wr_en = 1, rd_en = 1, data_in =  90, data_out =  89, full = 0, empty = 0
[710000]   wr_en = 1, rd_en = 1, data_in =  91, data_out =  89, full = 0, empty = 0
[715000]   wr_en = 1, rd_en = 1, data_in =  91, data_out =  90, full = 0, empty = 0
[720000]   wr_en = 1, rd_en = 1, data_in =  92, data_out =  90, full = 0, empty = 0
[725000]   wr_en = 1, rd_en = 1, data_in =  92, data_out =  91, full = 0, empty = 0
[730000]   wr_en = 1, rd_en = 1, data_in =  93, data_out =  91, full = 0, empty = 0
[735000]   wr_en = 1, rd_en = 1, data_in =  93, data_out =  92, full = 0, empty = 0
[740000]   wr_en = 1, rd_en = 1, data_in =  94, data_out =  92, full = 0, empty = 0
[745000]   wr_en = 1, rd_en = 1, data_in =  94, data_out =  93, full = 0, empty = 0
[750000]   wr_en = 1, rd_en = 1, data_in =  95, data_out =  93, full = 0, empty = 0
[755000]   wr_en = 1, rd_en = 1, data_in =  95, data_out =  94, full = 0, empty = 0
[760000]   wr_en = 1, rd_en = 1, data_in =  96, data_out =  94, full = 0, empty = 0
[765000]   wr_en = 1, rd_en = 1, data_in =  96, data_out =  95, full = 0, empty = 0
[770000]   wr_en = 1, rd_en = 1, data_in =  97, data_out =  95, full = 0, empty = 0
[775000]   wr_en = 1, rd_en = 1, data_in =  97, data_out =  96, full = 0, empty = 0
[780000]   wr_en = 1, rd_en = 1, data_in =  98, data_out =  96, full = 0, empty = 0
[785000]   wr_en = 1, rd_en = 1, data_in =  98, data_out =  97, full = 0, empty = 0
[790000]   wr_en = 1, rd_en = 1, data_in =  99, data_out =  97, full = 0, empty = 0
[795000]   wr_en = 1, rd_en = 1, data_in =  99, data_out =  98, full = 0, empty = 0
[800000]   wr_en = 1, rd_en = 1, data_in = 100, data_out =  98, full = 0, empty = 0
[805000]   wr_en = 1, rd_en = 1, data_in = 100, data_out =  99, full = 0, empty = 0
[810000]   wr_en = 1, rd_en = 1, data_in = 101, data_out =  99, full = 0, empty = 0
[815000]   wr_en = 1, rd_en = 1, data_in = 101, data_out = 100, full = 0, empty = 0
[820000]   wr_en = 1, rd_en = 1, data_in = 102, data_out = 100, full = 0, empty = 0
[825000]   wr_en = 1, rd_en = 1, data_in = 102, data_out = 101, full = 0, empty = 0
[830000]   wr_en = 1, rd_en = 1, data_in = 103, data_out = 101, full = 0, empty = 0
[835000]   wr_en = 1, rd_en = 1, data_in = 103, data_out = 102, full = 0, empty = 0
[840000]   wr_en = 1, rd_en = 1, data_in = 104, data_out = 102, full = 0, empty = 0
[845000]   wr_en = 1, rd_en = 1, data_in = 104, data_out = 103, full = 0, empty = 0
[850000]   wr_en = 1, rd_en = 1, data_in = 105, data_out = 103, full = 0, empty = 0
[855000]   wr_en = 1, rd_en = 1, data_in = 105, data_out = 104, full = 0, empty = 0
[860000]   wr_en = 1, rd_en = 1, data_in = 106, data_out = 104, full = 0, empty = 0
[865000]   wr_en = 1, rd_en = 1, data_in = 106, data_out = 105, full = 0, empty = 0
[870000]   wr_en = 1, rd_en = 1, data_in = 107, data_out = 105, full = 0, empty = 0
[875000]   wr_en = 1, rd_en = 1, data_in = 107, data_out = 106, full = 0, empty = 0
[880000]   wr_en = 1, rd_en = 1, data_in = 108, data_out = 106, full = 0, empty = 0
[885000]   wr_en = 1, rd_en = 1, data_in = 108, data_out = 107, full = 0, empty = 0
[890000]   wr_en = 1, rd_en = 1, data_in = 109, data_out = 107, full = 0, empty = 0
[895000]   wr_en = 1, rd_en = 1, data_in = 109, data_out = 108, full = 0, empty = 0
[900000]   wr_en = 1, rd_en = 1, data_in = 110, data_out = 108, full = 0, empty = 0
[905000]   wr_en = 1, rd_en = 1, data_in = 110, data_out = 109, full = 0, empty = 0
[910000]   wr_en = 1, rd_en = 1, data_in = 111, data_out = 109, full = 0, empty = 0
[915000]   wr_en = 1, rd_en = 1, data_in = 111, data_out = 110, full = 0, empty = 0
[920000]   wr_en = 1, rd_en = 1, data_in = 112, data_out = 110, full = 0, empty = 0
[925000]   wr_en = 1, rd_en = 1, data_in = 112, data_out = 111, full = 0, empty = 0
[930000]   wr_en = 1, rd_en = 1, data_in = 113, data_out = 111, full = 0, empty = 0
[935000]   wr_en = 1, rd_en = 1, data_in = 113, data_out = 112, full = 0, empty = 0
[940000]   wr_en = 1, rd_en = 1, data_in = 114, data_out = 112, full = 0, empty = 0
[945000]   wr_en = 1, rd_en = 1, data_in = 114, data_out = 113, full = 0, empty = 0
[950000]   wr_en = 1, rd_en = 1, data_in = 115, data_out = 113, full = 0, empty = 0
[955000]   wr_en = 1, rd_en = 1, data_in = 115, data_out = 114, full = 0, empty = 0
[960000]   wr_en = 1, rd_en = 1, data_in = 116, data_out = 114, full = 0, empty = 0
[965000]   wr_en = 1, rd_en = 1, data_in = 116, data_out = 115, full = 0, empty = 0
[970000]   wr_en = 1, rd_en = 1, data_in = 117, data_out = 115, full = 0, empty = 0
[975000]   wr_en = 1, rd_en = 1, data_in = 117, data_out = 116, full = 0, empty = 0
[980000]   wr_en = 1, rd_en = 1, data_in = 118, data_out = 116, full = 0, empty = 0
[985000]   wr_en = 1, rd_en = 1, data_in = 118, data_out = 117, full = 0, empty = 0
[990000]   wr_en = 1, rd_en = 1, data_in = 119, data_out = 117, full = 0, empty = 0
[995000]   wr_en = 1, rd_en = 1, data_in = 119, data_out = 118, full = 0, empty = 0
[1000000]   wr_en = 1, rd_en = 1, data_in = 120, data_out = 118, full = 0, empty = 0
[1005000]   wr_en = 1, rd_en = 1, data_in = 120, data_out = 119, full = 0, empty = 0
[1010000]   wr_en = 1, rd_en = 1, data_in = 121, data_out = 119, full = 0, empty = 0
[1015000]   wr_en = 1, rd_en = 1, data_in = 121, data_out = 120, full = 0, empty = 0
[1020000]   wr_en = 0, rd_en = 1, data_in = 121, data_out = 120, full = 0, empty = 0
[1025000]   wr_en = 0, rd_en = 1, data_in = 121, data_out = 121, full = 0, empty = 1
$finish called at time : 1820 ns : File "/home/arthur/Documents/FPGA_master_class/project_and_non_project_mode/fifo1/fifo_tb.v" Line 61
exit
INFO: [Common 17-206] Exiting xsim at Mon Oct  6 04:40:10 2025...
