fifo1/xsim.log
#-----------------------------------------------------------
# xsim v2024.2 (64-bit)
# SW Build 5239630 on Fri Nov 08 22:34:34 MST 2024
# IP Build 5239520 on Sun Nov 10 16:12:51 MST 2024
# SharedData Build 5239561 on Fri Nov 08 14:39:27 MST 2024
# Start of session at: Mon Oct  6 04:41:57 2025
# Process ID         : 164373
# Current directory  : /home/arthur/Documents/FPGA_master_class/project_and_non_project_mode/fifo1
# Command line       : xsim -mode tcl -source {xsim.dir/work.axis_fifo_tb/xsim_script.tcl}
# Log file           : /home/arthur/Documents/FPGA_master_class/project_and_non_project_mode/fifo1/xsim.log
# Journal file       : /home/arthur/Documents/FPGA_master_class/project_and_non_project_mode/fifo1/xsim.jou
# Running On         : arthur-nathaniel
# Platform           : Ubuntu
# Operating System   : Ubuntu 24.04.3 LTS
# Processor Detail   : 13th Gen Intel(R) Core(TM) i3-1315U
# CPU Frequency      : 1044.670 MHz
# CPU Physical cores : 6
# CPU Logical cores  : 8
# Host memory        : 8038 MB
# Swap memory        : 4294 MB
# Total Virtual      : 12333 MB
# Available Virtual  : 5102 MB
#-----------------------------------------------------------
source xsim.dir/work.axis_fifo_tb/xsim_script.tcl
# xsim {work.axis_fifo_tb} -autoloadwcfg -runall
Time resolution is 1 ps
run -all
[0]   s_axis_tvalid = 0, m_axis_tready = 0, s_axis_tdata =   x, m_axis_tdata =   x
[20000]   s_axis_tvalid = 1, m_axis_tready = 0, s_axis_tdata =  22, m_axis_tdata =   x
[30000]   s_axis_tvalid = 1, m_axis_tready = 0, s_axis_tdata =  23, m_axis_tdata =   x
[40000]   s_axis_tvalid = 1, m_axis_tready = 0, s_axis_tdata =  24, m_axis_tdata =   x
[50000]   s_axis_tvalid = 1, m_axis_tready = 0, s_axis_tdata =  25, m_axis_tdata =   x
[60000]   s_axis_tvalid = 1, m_axis_tready = 0, s_axis_tdata =  26, m_axis_tdata =   x
[70000]   s_axis_tvalid = 1, m_axis_tready = 0, s_axis_tdata =  27, m_axis_tdata =   x
[80000]   s_axis_tvalid = 1, m_axis_tready = 0, s_axis_tdata =  28, m_axis_tdata =   x
[90000]   s_axis_tvalid = 1, m_axis_tready = 0, s_axis_tdata =  29, m_axis_tdata =   x
[100000]   s_axis_tvalid = 1, m_axis_tready = 0, s_axis_tdata =  30, m_axis_tdata =   x
[110000]   s_axis_tvalid = 1, m_axis_tready = 0, s_axis_tdata =  31, m_axis_tdata =   x
[120000]   s_axis_tvalid = 1, m_axis_tready = 0, s_axis_tdata =  32, m_axis_tdata =   x
[130000]   s_axis_tvalid = 1, m_axis_tready = 0, s_axis_tdata =  33, m_axis_tdata =   x
[140000]   s_axis_tvalid = 1, m_axis_tready = 0, s_axis_tdata =  34, m_axis_tdata =   x
[150000]   s_axis_tvalid = 1, m_axis_tready = 0, s_axis_tdata =  35, m_axis_tdata =   x
[160000]   s_axis_tvalid = 1, m_axis_tready = 0, s_axis_tdata =  36, m_axis_tdata =   x
[170000]   s_axis_tvalid = 1, m_axis_tready = 0, s_axis_tdata =  37, m_axis_tdata =   x
[180000]   s_axis_tvalid = 1, m_axis_tready = 0, s_axis_tdata =  38, m_axis_tdata =   x
[190000]   s_axis_tvalid = 1, m_axis_tready = 0, s_axis_tdata =  39, m_axis_tdata =   x
[200000]   s_axis_tvalid = 1, m_axis_tready = 0, s_axis_tdata =  40, m_axis_tdata =   x
[210000]   s_axis_tvalid = 1, m_axis_tready = 0, s_axis_tdata =  41, m_axis_tdata =   x
[220000]   s_axis_tvalid = 1, m_axis_tready = 0, s_axis_tdata =  42, m_axis_tdata =   x
[230000]   s_axis_tvalid = 1, m_axis_tready = 0, s_axis_tdata =  43, m_axis_tdata =   x
[240000]   s_axis_tvalid = 1, m_axis_tready = 0, s_axis_tdata =  44, m_axis_tdata =   x
[250000]   s_axis_tvalid = 1, m_axis_tready = 0, s_axis_tdata =  45, m_axis_tdata =   x
[260000]   s_axis_tvalid = 1, m_axis_tready = 0, s_axis_tdata =  46, m_axis_tdata =   x
[270000]   s_axis_tvalid = 1, m_axis_tready = 0, s_axis_tdata =  47, m_axis_tdata =   x
[280000]   s_axis_tvalid = 1, m_axis_tready = 0, s_axis_tdata =  48, m_axis_tdata =   x
[290000]   s_axis_tvalid = 1, m_axis_tready = 0, s_axis_tdata =  49, m_axis_tdata =   x
[300000]   s_axis_tvalid = 1, m_axis_tready = 0, s_axis_tdata =  50, m_axis_tdata =   x
[310000]   s_axis_tvalid = 1, m_axis_tready = 0, s_axis_tdata =  51, m_axis_tdata =   x
[320000]   s_axis_tvalid = 1, m_axis_tready = 0, s_axis_tdata =  52, m_axis_tdata =   x
[330000]   s_axis_tvalid = 1, m_axis_tready = 0, s_axis_tdata =  53, m_axis_tdata =   x
[340000]   s_axis_tvalid = 1, m_axis_tready = 0, s_axis_tdata =  54, m_axis_tdata =   x
[350000]   s_axis_tvalid = 1, m_axis_tready = 0, s_axis_tdata =  55, m_axis_tdata =   x
[360000]   s_axis_tvalid = 1, m_axis_tready = 0, s_axis_tdata =  56, m_axis_tdata =   x
[370000]   s_axis_tvalid = 1, m_axis_tready = 0, s_axis_tdata =  57, m_axis_tdata =   x
[380000]   s_axis_tvalid = 1, m_axis_tready = 0, s_axis_tdata =  58, m_axis_tdata =   x
[390000]   s_axis_tvalid = 1, m_axis_tready = 0, s_axis_tdata =  59, m_axis_tdata =   x
[400000]   s_axis_tvalid = 1, m_axis_tready = 0, s_axis_tdata =  60, m_axis_tdata =   x
[410000]   s_axis_tvalid = 1, m_axis_tready = 0, s_axis_tdata =  61, m_axis_tdata =   x
[420000]   s_axis_tvalid = 1, m_axis_tready = 0, s_axis_tdata =  62, m_axis_tdata =   x
[430000]   s_axis_tvalid = 1, m_axis_tready = 0, s_axis_tdata =  63, m_axis_tdata =   x
[440000]   s_axis_tvalid = 1, m_axis_tready = 0, s_axis_tdata =  64, m_axis_tdata =   x
[450000]   s_axis_tvalid = 1, m_axis_tready = 0, s_axis_tdata =  65, m_axis_tdata =   x
[460000]   s_axis_tvalid = 1, m_axis_tready = 0, s_axis_tdata =  66, m_axis_tdata =   x
[470000]   s_axis_tvalid = 1, m_axis_tready = 0, s_axis_tdata =  67, m_axis_tdata =   x
[480000]   s_axis_tvalid = 1, m_axis_tready = 0, s_axis_tdata =  68, m_axis_tdata =   x
[490000]   s_axis_tvalid = 1, m_axis_tready = 0, s_axis_tdata =  69, m_axis_tdata =   x
[500000]   s_axis_tvalid = 1, m_axis_tready = 0, s_axis_tdata =  70, m_axis_tdata =   x
[510000]   s_axis_tvalid = 1, m_axis_tready = 0, s_axis_tdata =  71, m_axis_tdata =   x
[520000]   s_axis_tvalid = 1, m_axis_tready = 0, s_axis_tdata =  72, m_axis_tdata =   x
[530000]   s_axis_tvalid = 1, m_axis_tready = 0, s_axis_tdata =  73, m_axis_tdata =   x
[540000]   s_axis_tvalid = 1, m_axis_tready = 0, s_axis_tdata =  74, m_axis_tdata =   x
[550000]   s_axis_tvalid = 1, m_axis_tready = 0, s_axis_tdata =  75, m_axis_tdata =   x
[560000]   s_axis_tvalid = 1, m_axis_tready = 0, s_axis_tdata =  76, m_axis_tdata =   x
[570000]   s_axis_tvalid = 1, m_axis_tready = 0, s_axis_tdata =  77, m_axis_tdata =   x
[580000]   s_axis_tvalid = 1, m_axis_tready = 0, s_axis_tdata =  78, m_axis_tdata =   x
[590000]   s_axis_tvalid = 1, m_axis_tready = 0, s_axis_tdata =  79, m_axis_tdata =   x
[600000]   s_axis_tvalid = 1, m_axis_tready = 0, s_axis_tdata =  80, m_axis_tdata =   x
[610000]   s_axis_tvalid = 1, m_axis_tready = 0, s_axis_tdata =  81, m_axis_tdata =   x
[620000]   s_axis_tvalid = 1, m_axis_tready = 0, s_axis_tdata =  82, m_axis_tdata =   x
[630000]   s_axis_tvalid = 1, m_axis_tready = 0, s_axis_tdata =  83, m_axis_tdata =   x
[640000]   s_axis_tvalid = 1, m_axis_tready = 0, s_axis_tdata =  84, m_axis_tdata =   x
[650000]   s_axis_tvalid = 1, m_axis_tready = 0, s_axis_tdata =  85, m_axis_tdata =   x
[660000]   s_axis_tvalid = 1, m_axis_tready = 0, s_axis_tdata =  86, m_axis_tdata =   x
[670000]   s_axis_tvalid = 1, m_axis_tready = 0, s_axis_tdata =  87, m_axis_tdata =   x
[680000]   s_axis_tvalid = 1, m_axis_tready = 0, s_axis_tdata =  88, m_axis_tdata =   x
[690000]   s_axis_tvalid = 1, m_axis_tready = 0, s_axis_tdata =  89, m_axis_tdata =   x
[700000]   s_axis_tvalid = 1, m_axis_tready = 0, s_axis_tdata =  90, m_axis_tdata =   x
[710000]   s_axis_tvalid = 1, m_axis_tready = 0, s_axis_tdata =  91, m_axis_tdata =   x
[720000]   s_axis_tvalid = 0, m_axis_tready = 0, s_axis_tdata =  91, m_axis_tdata =   x
[730000]   s_axis_tvalid = 0, m_axis_tready = 1, s_axis_tdata =  91, m_axis_tdata =   x
[735000]   s_axis_tvalid = 0, m_axis_tready = 1, s_axis_tdata =  91, m_axis_tdata =  22
[745000]   s_axis_tvalid = 0, m_axis_tready = 1, s_axis_tdata =  91, m_axis_tdata =  23
[755000]   s_axis_tvalid = 0, m_axis_tready = 1, s_axis_tdata =  91, m_axis_tdata =  24
[765000]   s_axis_tvalid = 0, m_axis_tready = 1, s_axis_tdata =  91, m_axis_tdata =  25
[775000]   s_axis_tvalid = 0, m_axis_tready = 1, s_axis_tdata =  91, m_axis_tdata =  26
[785000]   s_axis_tvalid = 0, m_axis_tready = 1, s_axis_tdata =  91, m_axis_tdata =  27
[795000]   s_axis_tvalid = 0, m_axis_tready = 1, s_axis_tdata =  91, m_axis_tdata =  28
[805000]   s_axis_tvalid = 0, m_axis_tready = 1, s_axis_tdata =  91, m_axis_tdata =  29
[1430000]   s_axis_tvalid = 0, m_axis_tready = 0, s_axis_tdata =  91, m_axis_tdata =  29
$finish called at time : 1530 ns : File "/home/arthur/Documents/FPGA_master_class/project_and_non_project_mode/fifo1/axis_fifo_tb.v" Line 68
exit
INFO: [Common 17-206] Exiting xsim at Mon Oct  6 04:42:02 2025...
